…
## 5.3 `juice` the all\_data2 and split

``` r
all_data2 <- juice(housing_recipe)
all_data2
```

    ## # A tibble: 2,919 x 246
    ##    ms_sub_class lot_frontage lot_area overall_qual overall_cond year_built
    ##           <dbl>        <dbl>    <dbl>        <dbl>        <dbl>      <dbl>
    ##  1       0.0673      -0.202   -0.218        0.646        -0.507     1.05  
    ##  2      -0.873        0.502   -0.0720      -0.0632        2.19      0.155 
    ##  3       0.0673      -0.0613   0.137        0.646        -0.507     0.980 
    ##  4       0.303       -0.437   -0.0784       0.646        -0.507    -1.86  
    ##  5       0.0673       0.689    0.519        1.36         -0.507     0.947 
    ##  6      -0.168        0.736    0.500       -0.772        -0.507     0.716 
    ##  7      -0.873        0.267   -0.0107       1.36         -0.507     1.08  
    ##  8       0.0673       0        0.0271       0.646         0.391     0.0557
    ##  9      -0.168       -0.859   -0.513        0.646        -0.507    -1.33  
    ## 10       3.12        -0.906   -0.348       -0.772         0.391    -1.07  
    ## # ... with 2,909 more rows, and 240 more variables: year_remod_add <dbl>,
    ## #   mas_vnr_area <dbl>, bsmt_fin_sf1 <dbl>, bsmt_fin_sf2 <dbl>,
    ## #   bsmt_unf_sf <dbl>, total_bsmt_sf <dbl>, x1st_flr_sf <dbl>,
    ## #   x2nd_flr_sf <dbl>, low_qual_fin_sf <dbl>, gr_liv_area <dbl>,
    ## #   bsmt_full_bath <dbl>, bsmt_half_bath <dbl>, full_bath <dbl>,
    ## #   half_bath <dbl>, bedroom_abv_gr <dbl>, kitchen_abv_gr <dbl>,
    ## #   tot_rms_abv_grd <dbl>, fireplaces <dbl>, garage_yr_blt <dbl>,
    ## #   garage_cars <dbl>, garage_area <dbl>, wood_deck_sf <dbl>,
    ## #   open_porch_sf <dbl>, enclosed_porch <dbl>, x3ssn_porch <dbl>,
…
Set `mixture` is equal to zero refering the Ridge regression in `glmnet`
since the

``` r
lasso_model <- linear_reg(penalty = 0.01, mixture = 1) %>% # lasso : 1, ridge = 0
               set_engine("glmnet")

lasso_fit <- lasso_model %>% fit(sale_price ~., data = train2)

options(max.print=10)

lasso_fit %>% tidy() %>% filter(estimate > 0.001)
```

    ## # A tibble: 34 x 3
    ##    term           estimate penalty
    ##    <chr>             <dbl>   <dbl>
    ##  1 (Intercept)    12.0        0.01
    ##  2 lot_area        0.00900    0.01
    ##  3 overall_qual    0.114      0.01
    ##  4 overall_cond    0.0317     0.01
    ##  5 year_built      0.0412     0.01
    ##  6 year_remod_add  0.0208     0.01
    ##  7 total_bsmt_sf   0.0222     0.01
    ##  8 x1st_flr_sf     0.00271    0.01
    ##  9 gr_liv_area     0.108      0.01
    ## 10 bsmt_full_bath  0.0175     0.01
    ## # ... with 24 more rows
…
